simulation/qsim/Control1.msim.vcd
$comment
	File created using the following command:
		vcd file Control1.msim.vcd -direction
$end
$date
	Mon Nov 13 16:29:59 2023
$end
$version
	ModelSim Version 10.1d
$end
$timescale
	1ps
$end
$scope module Control1_vlg_vec_tst $end
$var reg 1 ! clock $end
$var reg 1 " reset $end
$var reg 2 # SI_SD [1:0] $end
$var wire 1 $ D_I [3] $end
$var wire 1 % D_I [2] $end
$var wire 1 & D_I [1] $end
$var wire 1 ' D_I [0] $end
$var wire 1 ( PD_PI [3] $end
$var wire 1 ) PD_PI [2] $end
$var wire 1 * PD_PI [1] $end
$var wire 1 + PD_PI [0] $end
$var wire 1 , sampler $end
$scope module i1 $end
$var wire 1 - gnd $end
$var wire 1 . vcc $end
$var wire 1 / unknown $end
$var tri1 1 0 devclrn $end
$var tri1 1 1 devpor $end
$var tri1 1 2 devoe $end
$var wire 1 3 clock~input_o $end
$var wire 1 4 reset~input_o $end
$var wire 1 5 D_I[0]~output_o $end
$var wire 1 6 D_I[1]~output_o $end
$var wire 1 7 D_I[2]~output_o $end
$var wire 1 8 D_I[3]~output_o $end
$var wire 1 9 PD_PI[0]~output_o $end
$var wire 1 : PD_PI[1]~output_o $end
$var wire 1 ; PD_PI[2]~output_o $end
$var wire 1 < PD_PI[3]~output_o $end
$var wire 1 = SI_SD[1]~input_o $end
$var wire 1 > SI_SD[0]~input_o $end
$var wire 1 ? Equal2~0_combout $end
$var wire 1 @ Equal0~0_combout $end
$upscope $end
$upscope $end
$enddefinitions $end
#0
$dumpvars
0!
0"
b0 #
0'
1&
0%
1$
1+
1*
1)
1(
x,
0-
1.
x/
10
11
12
03
04
05
16
07
18
19
1:
1;
1<
0=
0>
0?
0@
$end
#25000
1!
13
0,
#50000
0!
03
1,
#75000
1!
13
0,
#100000
0!
03
1,
#125000
1!
13
0,
#150000
0!
03
1,
#175000
1!
13
0,
#200000
b1 #
0!
1>
03
1,
1@
08
0$
0:
0<
0*
0(
#225000
1!
13
0,
#250000
0!
03
1,
#275000
1!
13
0,
#300000
0!
03
1,
#325000
1!
13
0,
#350000
0!
03
1,
#375000
1!
13
0,
#400000
b11 #
b10 #
0!
0>
1=
03
1,
18
06
1$
0&
#425000
1!
13
0,
#450000
0!
03
1,
#475000
1!
13
0,
#500000
0!
03
1,
#525000
1!
13
0,
#550000
0!
03
1,
#575000
1!
13
0,
#600000
b11 #
0!
1>
03
1,
08
0$
1?
17
15
1%
1'
#625000
1!
13
0,
#650000
0!
03
1,
#675000
1!
13
0,
#700000
0!
03
1,
#725000
1!
13
0,
#750000
0!
03
1,
#775000
1!
13
0,
#800000
b1 #
b0 #
0!
0>
0=
03
1,
0@
18
16
1$
1&
0?
1:
1<
07
05
1*
1(
0%
0'
#825000
1!
13
0,
#850000
0!
03
1,
#875000
1!
13
0,
#900000
0!
03
1,
#925000
1!
13
0,
#950000
0!
03
1,
#975000
1!
13
0,
